%YAML 1.1
%TAG !u! tag:unity3d.com,2011:
--- !u!1001 &1826338383994222855
PrefabInstance:
  m_ObjectHideFlags: 0
  serializedVersion: 2
  m_Modification:
    m_TransformParent: {fileID: 3426041463657034975}
    m_Modifications:
    - target: {fileID: -8833315701163887599, guid: 8b6afed4904e14cca80f5c38e31454f3,
        type: 3}
      propertyPath: m_AssetId
      value: 2ee8c18cc5a2447be85949ac937e65b8
      objectReference: {fileID: 0}
    - target: {fileID: -5720384143767444916, guid: 8b6afed4904e14cca80f5c38e31454f3,
        type: 3}
      propertyPath: mLayerMask.m_Bits
      value: 64
      objectReference: {fileID: 0}
    - target: {fileID: 7324220342705051270, guid: 8b6afed4904e14cca80f5c38e31454f3,
        type: 3}
      propertyPath: m_RootOrder
      value: 1
      objectReference: {fileID: 0}
    - target: {fileID: 7324220342705051270, guid: 8b6afed4904e14cca80f5c38e31454f3,
        type: 3}
      propertyPath: m_LocalScale.x
      value: 0.01785714
      objectReference: {fileID: 0}
    - target: {fileID: 7324220342705051270, guid: 8b6afed4904e14cca80f5c38e31454f3,
        type: 3}
      propertyPath: m_LocalScale.y
      value: 0.024999991
      objectReference: {fileID: 0}
    - target: {fileID: 7324220342705051270, guid: 8b6afed4904e14cca80f5c38e31454f3,
        type: 3}
      propertyPath: m_LocalScale.z
      value: 0.02857143
      objectReference: {fileID: 0}
    - target: {fileID: 7324220342705051270, guid: 8b6afed4904e14cca80f5c38e31454f3,
        type: 3}
      propertyPath: m_LocalPosition.x
      value: -0.017553516
      objectReference: {fileID: 0}
    - target: {fileID: 7324220342705051270, guid: 8b6afed4904e14cca80f5c38e31454f3,
        type: 3}
      propertyPath: m_LocalPosition.y
      value: 0.00040659087
      objectReference: {fileID: 0}
    - target: {fileID: 7324220342705051270, guid: 8b6afed4904e14cca80f5c38e31454f3,
        type: 3}
      propertyPath: m_LocalPosition.z
      value: 0.0017375582
      objectReference: {fileID: 0}
    - target: {fileID: 7324220342705051270, guid: 8b6afed4904e14cca80f5c38e31454f3,
        type: 3}
      propertyPath: m_LocalRotation.w
      value: 0.697224
      objectReference: {fileID: 0}
    - target: {fileID: 7324220342705051270, guid: 8b6afed4904e14cca80f5c38e31454f3,
        type: 3}
      propertyPath: m_LocalRotation.x
      value: 0.035376534
      objectReference: {fileID: 0}
    - target: {fileID: 7324220342705051270, guid: 8b6afed4904e14cca80f5c38e31454f3,
        type: 3}
      propertyPath: m_LocalRotation.y
      value: -0.016818924
      objectReference: {fileID: 0}
    - target: {fileID: 7324220342705051270, guid: 8b6afed4904e14cca80f5c38e31454f3,
        type: 3}
      propertyPath: m_LocalRotation.z
      value: 0.7157824
      objectReference: {fileID: 0}
    - target: {fileID: 7324220342705051270, guid: 8b6afed4904e14cca80f5c38e31454f3,
        type: 3}
      propertyPath: m_LocalEulerAnglesHint.x
      value: 90
      objectReference: {fileID: 0}
    - target: {fileID: 7324220342705051270, guid: 8b6afed4904e14cca80f5c38e31454f3,
        type: 3}
      propertyPath: m_LocalEulerAnglesHint.y
      value: 0
      objectReference: {fileID: 0}
    - target: {fileID: 7324220342705051270, guid: 8b6afed4904e14cca80f5c38e31454f3,
        type: 3}
      propertyPath: m_LocalEulerAnglesHint.z
      value: 0
      objectReference: {fileID: 0}
    - target: {fileID: 7993620182598650940, guid: 8b6afed4904e14cca80f5c38e31454f3,
        type: 3}
      propertyPath: m_Name
      value: Stylized sword Net
      objectReference: {fileID: 0}
    m_RemovedComponents:
    - {fileID: -8833315701163887599, guid: 8b6afed4904e14cca80f5c38e31454f3, type: 3}
  m_SourcePrefab: {fileID: 100100000, guid: 8b6afed4904e14cca80f5c38e31454f3, type: 3}
--- !u!1001 &3079733955634844532
PrefabInstance:
  m_ObjectHideFlags: 0
  serializedVersion: 2
  m_Modification:
    m_TransformParent: {fileID: 6973943471621330691}
    m_Modifications:
    - target: {fileID: -4216859302048453862, guid: 82a2914d8f86c62488456950c8330e38,
        type: 3}
      propertyPath: m_RootOrder
      value: 2
      objectReference: {fileID: 0}
    - target: {fileID: -4216859302048453862, guid: 82a2914d8f86c62488456950c8330e38,
        type: 3}
      propertyPath: m_LocalPosition.x
      value: 0
      objectReference: {fileID: 0}
    - target: {fileID: -4216859302048453862, guid: 82a2914d8f86c62488456950c8330e38,
        type: 3}
      propertyPath: m_LocalPosition.y
      value: 0
      objectReference: {fileID: 0}
    - target: {fileID: -4216859302048453862, guid: 82a2914d8f86c62488456950c8330e38,
        type: 3}
      propertyPath: m_LocalPosition.z
      value: 0
      objectReference: {fileID: 0}
    - target: {fileID: -4216859302048453862, guid: 82a2914d8f86c62488456950c8330e38,
        type: 3}
      propertyPath: m_LocalRotation.w
      value: 1
      objectReference: {fileID: 0}
    - target: {fileID: -4216859302048453862, guid: 82a2914d8f86c62488456950c8330e38,
        type: 3}
      propertyPath: m_LocalRotation.x
      value: 0
      objectReference: {fileID: 0}
    - target: {fileID: -4216859302048453862, guid: 82a2914d8f86c62488456950c8330e38,
        type: 3}
      propertyPath: m_LocalRotation.y
      value: 0
      objectReference: {fileID: 0}
    - target: {fileID: -4216859302048453862, guid: 82a2914d8f86c62488456950c8330e38,
        type: 3}
      propertyPath: m_LocalRotation.z
      value: 0
      objectReference: {fileID: 0}
    - target: {fileID: -4216859302048453862, guid: 82a2914d8f86c62488456950c8330e38,
        type: 3}
      propertyPath: m_LocalEulerAnglesHint.x
      value: 0
      objectReference: {fileID: 0}
    - target: {fileID: -4216859302048453862, guid: 82a2914d8f86c62488456950c8330e38,
        type: 3}
      propertyPath: m_LocalEulerAnglesHint.y
      value: 0
      objectReference: {fileID: 0}
    - target: {fileID: -4216859302048453862, guid: 82a2914d8f86c62488456950c8330e38,
        type: 3}
      propertyPath: m_LocalEulerAnglesHint.z
      value: 0
      objectReference: {fileID: 0}
    - target: {fileID: -927199367670048503, guid: 82a2914d8f86c62488456950c8330e38,
        type: 3}
      propertyPath: m_Name
      value: Jammo_LowPoly
      objectReference: {fileID: 0}
    - target: {fileID: 457233203367459360, guid: 82a2914d8f86c62488456950c8330e38,
        type: 3}
      propertyPath: m_Layer
      value: 0
      objectReference: {fileID: 0}
    - target: {fileID: 457233203367459360, guid: 82a2914d8f86c62488456950c8330e38,
        type: 3}
      propertyPath: m_TagString
      value: PlayerEyes
      objectReference: {fileID: 0}
    m_RemovedComponents: []
  m_SourcePrefab: {fileID: 100100000, guid: 82a2914d8f86c62488456950c8330e38, type: 3}
--- !u!4 &3426041463657034975 stripped
Transform:
  m_CorrespondingSourceObject: {fileID: -8847647782281173077, guid: 82a2914d8f86c62488456950c8330e38,
    type: 3}
  m_PrefabInstance: {fileID: 3079733955634844532}
  m_PrefabAsset: {fileID: 0}
--- !u!1001 &7104448344635670292
PrefabInstance:
  m_ObjectHideFlags: 0
  serializedVersion: 2
  m_Modification:
    m_TransformParent: {fileID: 0}
    m_Modifications:
    - target: {fileID: -6071793627775177017, guid: 0eaaed976de70460bb4ac15d67ae302f,
        type: 3}
      propertyPath: damagePerPress
      value: 10
      objectReference: {fileID: 0}
    - target: {fileID: -4716381609488844804, guid: 0eaaed976de70460bb4ac15d67ae302f,
        type: 3}
      propertyPath: m_Size.x
      value: 0.55758667
      objectReference: {fileID: 0}
    - target: {fileID: -4716381609488844804, guid: 0eaaed976de70460bb4ac15d67ae302f,
        type: 3}
      propertyPath: m_Size.y
      value: 1.6433213
      objectReference: {fileID: 0}
    - target: {fileID: -4716381609488844804, guid: 0eaaed976de70460bb4ac15d67ae302f,
        type: 3}
      propertyPath: m_Center.x
      value: 0.0072021484
      objectReference: {fileID: 0}
    - target: {fileID: -4716381609488844804, guid: 0eaaed976de70460bb4ac15d67ae302f,
        type: 3}
      propertyPath: m_Center.y
      value: 0.7896775
      objectReference: {fileID: 0}
    - target: {fileID: -4716381609488844804, guid: 0eaaed976de70460bb4ac15d67ae302f,
        type: 3}
      propertyPath: m_IsTrigger
      value: 1
      objectReference: {fileID: 0}
    - target: {fileID: 166772290249959444, guid: 0eaaed976de70460bb4ac15d67ae302f,
        type: 3}
      propertyPath: clientAuthority
      value: 1
      objectReference: {fileID: 0}
    - target: {fileID: 166772290249959445, guid: 0eaaed976de70460bb4ac15d67ae302f,
        type: 3}
      propertyPath: sceneId
      value: 0
      objectReference: {fileID: 0}
    - target: {fileID: 166772290249959445, guid: 0eaaed976de70460bb4ac15d67ae302f,
        type: 3}
      propertyPath: m_AssetId
      value: 2ee8c18cc5a2447be85949ac937e65b8
      objectReference: {fileID: 0}
    - target: {fileID: 166772290249959447, guid: 0eaaed976de70460bb4ac15d67ae302f,
        type: 3}
      propertyPath: m_RootOrder
      value: 0
      objectReference: {fileID: 0}
    - target: {fileID: 166772290249959447, guid: 0eaaed976de70460bb4ac15d67ae302f,
        type: 3}
      propertyPath: m_LocalPosition.x
      value: 230
      objectReference: {fileID: 0}
    - target: {fileID: 166772290249959447, guid: 0eaaed976de70460bb4ac15d67ae302f,
        type: 3}
      propertyPath: m_LocalPosition.y
      value: 5
      objectReference: {fileID: 0}
    - target: {fileID: 166772290249959447, guid: 0eaaed976de70460bb4ac15d67ae302f,
        type: 3}
      propertyPath: m_LocalPosition.z
      value: 119
      objectReference: {fileID: 0}
    - target: {fileID: 166772290249959447, guid: 0eaaed976de70460bb4ac15d67ae302f,
        type: 3}
      propertyPath: m_LocalRotation.w
      value: 1
      objectReference: {fileID: 0}
    - target: {fileID: 166772290249959447, guid: 0eaaed976de70460bb4ac15d67ae302f,
        type: 3}
      propertyPath: m_LocalRotation.x
      value: 0
      objectReference: {fileID: 0}
    - target: {fileID: 166772290249959447, guid: 0eaaed976de70460bb4ac15d67ae302f,
        type: 3}
      propertyPath: m_LocalRotation.y
      value: 0
      objectReference: {fileID: 0}
    - target: {fileID: 166772290249959447, guid: 0eaaed976de70460bb4ac15d67ae302f,
        type: 3}
      propertyPath: m_LocalRotation.z
      value: 0
      objectReference: {fileID: 0}
    - target: {fileID: 166772290249959447, guid: 0eaaed976de70460bb4ac15d67ae302f,
        type: 3}
      propertyPath: m_LocalEulerAnglesHint.x
      value: 0
      objectReference: {fileID: 0}
    - target: {fileID: 166772290249959447, guid: 0eaaed976de70460bb4ac15d67ae302f,
        type: 3}
      propertyPath: m_LocalEulerAnglesHint.y
      value: 0
      objectReference: {fileID: 0}
    - target: {fileID: 166772290249959447, guid: 0eaaed976de70460bb4ac15d67ae302f,
        type: 3}
      propertyPath: m_LocalEulerAnglesHint.z
      value: 0
      objectReference: {fileID: 0}
    - target: {fileID: 166772290249959450, guid: 0eaaed976de70460bb4ac15d67ae302f,
        type: 3}
      propertyPath: m_Name
      value: JammoCharacterNet
      objectReference: {fileID: 0}
    - target: {fileID: 166772290249959450, guid: 0eaaed976de70460bb4ac15d67ae302f,
        type: 3}
      propertyPath: m_Layer
      value: 6
      objectReference: {fileID: 0}
    - target: {fileID: 166772290249959450, guid: 0eaaed976de70460bb4ac15d67ae302f,
        type: 3}
      propertyPath: m_TagString
      value: Player
      objectReference: {fileID: 0}
    - target: {fileID: 166772290249959451, guid: 0eaaed976de70460bb4ac15d67ae302f,
        type: 3}
      propertyPath: animator
      value: 
      objectReference: {fileID: -6300261369894531030}
    - target: {fileID: 166772290249959451, guid: 0eaaed976de70460bb4ac15d67ae302f,
        type: 3}
      propertyPath: clientAuthority
      value: 1
      objectReference: {fileID: 0}
    - target: {fileID: 851486264161244523, guid: 0eaaed976de70460bb4ac15d67ae302f,
        type: 3}
      propertyPath: m_Color.b
      value: 0.9672036
      objectReference: {fileID: 0}
    - target: {fileID: 851486264161244523, guid: 0eaaed976de70460bb4ac15d67ae302f,
        type: 3}
      propertyPath: m_Color.g
      value: 0.9672036
      objectReference: {fileID: 0}
    - target: {fileID: 851486264161244523, guid: 0eaaed976de70460bb4ac15d67ae302f,
        type: 3}
      propertyPath: m_Color.r
      value: 0.990566
      objectReference: {fileID: 0}
    - target: {fileID: 8048526803813474686, guid: 0eaaed976de70460bb4ac15d67ae302f,
        type: 3}
      propertyPath: m_AnchoredPosition.x
      value: -211.5
      objectReference: {fileID: 0}
    - target: {fileID: 8048526803813474686, guid: 0eaaed976de70460bb4ac15d67ae302f,
        type: 3}
      propertyPath: m_AnchoredPosition.y
      value: 2.649994
      objectReference: {fileID: 0}
    - target: {fileID: 8085489709878306648, guid: 0eaaed976de70460bb4ac15d67ae302f,
        type: 3}
      propertyPath: m_AnchoredPosition.x
      value: -211.5
      objectReference: {fileID: 0}
    - target: {fileID: 8085489709878306648, guid: 0eaaed976de70460bb4ac15d67ae302f,
        type: 3}
      propertyPath: m_AnchoredPosition.y
      value: 2.800003
      objectReference: {fileID: 0}
    - target: {fileID: 9008567059030845952, guid: 0eaaed976de70460bb4ac15d67ae302f,
        type: 3}
      propertyPath: m_AnchoredPosition.y
      value: 2.800003
      objectReference: {fileID: 0}
    m_RemovedComponents: []
  m_SourcePrefab: {fileID: 100100000, guid: 0eaaed976de70460bb4ac15d67ae302f, type: 3}
--- !u!4 &6973943471621330691 stripped
Transform:
  m_CorrespondingSourceObject: {fileID: 166772290249959447, guid: 0eaaed976de70460bb4ac15d67ae302f,
    type: 3}
  m_PrefabInstance: {fileID: 7104448344635670292}
  m_PrefabAsset: {fileID: 0}
--- !u!1 &6973943471621330702 stripped
GameObject:
  m_CorrespondingSourceObject: {fileID: 166772290249959450, guid: 0eaaed976de70460bb4ac15d67ae302f,
    type: 3}
  m_PrefabInstance: {fileID: 7104448344635670292}
  m_PrefabAsset: {fileID: 0}
--- !u!143 &3735217550498759102
CharacterController:
  m_ObjectHideFlags: 0
  m_CorrespondingSourceObject: {fileID: 0}
  m_PrefabInstance: {fileID: 0}
  m_PrefabAsset: {fileID: 0}
  m_GameObject: {fileID: 6973943471621330702}
  m_Material: {fileID: 0}
  m_IsTrigger: 0
  m_Enabled: 1
  serializedVersion: 2
  m_Height: 1.8
  m_Radius: 0.5
  m_SlopeLimit: 45
  m_StepOffset: 0.3
  m_SkinWidth: 0.08
  m_MinMoveDistance: 0
  m_Center: {x: 0, y: 0.95, z: 0}
--- !u!95 &-6300261369894531030
Animator:
  serializedVersion: 4
  m_ObjectHideFlags: 0
  m_CorrespondingSourceObject: {fileID: 0}
  m_PrefabInstance: {fileID: 0}
  m_PrefabAsset: {fileID: 0}
  m_GameObject: {fileID: 6973943471621330702}
  m_Enabled: 1
  m_Avatar: {fileID: 9000000, guid: 82a2914d8f86c62488456950c8330e38, type: 3}
  m_Controller: {fileID: 9100000, guid: 535d24752e3d6444da644e79e90ec2ca, type: 2}
  m_CullingMode: 0
  m_UpdateMode: 0
  m_ApplyRootMotion: 0
  m_LinearVelocityBlending: 0
  m_StabilizeFeet: 0
  m_WarningMessage: 
  m_HasTransformHierarchy: 1
  m_AllowConstantClipSamplingOptimization: 1
  m_KeepAnimatorControllerStateOnDisable: 0
--- !u!114 &4074651066213782612
MonoBehaviour:
  m_ObjectHideFlags: 0
  m_CorrespondingSourceObject: {fileID: 0}
  m_PrefabInstance: {fileID: 0}
  m_PrefabAsset: {fileID: 0}
  m_GameObject: {fileID: 6973943471621330702}
  m_Enabled: 1
  m_EditorHideFlags: 0
  m_Script: {fileID: 11500000, guid: 8b39f73eda2464d55a5c3b8afc757479, type: 3}
  m_Name: 
  m_EditorClassIdentifier: 
  albedoList:
  - {fileID: 2800000, guid: fb6e06c953f0d8045bc58e0f5a640f07, type: 3}
  - {fileID: 2800000, guid: c9fd4ccfc3404b04eae3cd87e40a8e2e, type: 3}
  - {fileID: 2800000, guid: 10c532508a2453a48aa766e69193d105, type: 3}
  - {fileID: 2800000, guid: f61e83171850a834788a4664dbb54eae, type: 3}
  eyeColors:
  - {r: 0.049439307, g: 0.9528302, b: 0.9442493, a: 0}
  - {r: 0.049439307, g: 0.9528302, b: 0.9442493, a: 0}
  - {r: 0.049439307, g: 0.9528302, b: 0.9442493, a: 0}
  - {r: 0.049439307, g: 0.9528302, b: 0.9442493, a: 0}
  eyeState: 0
  colorIndex: 0
