%YAML 1.1
%TAG !u! tag:unity3d.com,2011:
--- !u!114 &-2349702497810228835
MonoBehaviour:
  m_ObjectHideFlags: 11
  m_CorrespondingSourceObject: {fileID: 0}
  m_PrefabInstance: {fileID: 0}
  m_PrefabAsset: {fileID: 0}
  m_GameObject: {fileID: 0}
  m_Enabled: 1
  m_EditorHideFlags: 0
  m_Script: {fileID: 11500000, guid: d0353a89b1f911e48b9e16bdc9f2e058, type: 3}
  m_Name: 
  m_EditorClassIdentifier: 
  version: 5
--- !u!21 &2100000
Material:
  serializedVersion: 8
  m_ObjectHideFlags: 0
  m_CorrespondingSourceObject: {fileID: 0}
  m_PrefabInstance: {fileID: 0}
  m_PrefabAsset: {fileID: 0}
  m_Name: Hairs
  m_Shader: {fileID: 4800000, guid: 0f4122b9a743b744abe2fb6a0a88868b, type: 3}
  m_ValidKeywords:
  - EFFECT_BUMP
  - GEOM_TYPE_LEAF
  m_InvalidKeywords:
  - _ALPHATEST_ON
  - _LIGHTMAPPING_REALTIME
  - _METALLICGLOSSMAP
  - _NORMALMAP
  m_LightmapFlags: 5
  m_EnableInstancingVariants: 0
  m_DoubleSidedGI: 0
  m_CustomRenderQueue: -1
  stringTagMap: {}
  disabledShaderPasses: []
  m_SavedProperties:
    serializedVersion: 3
    m_TexEnvs:
    - _BumpMap:
        m_Texture: {fileID: 2800000, guid: a467363255e86c248ae415031573d587, type: 3}
        m_Scale: {x: 1, y: 1}
        m_Offset: {x: 0, y: 0}
    - _DetailAlbedoMap:
        m_Texture: {fileID: 0}
        m_Scale: {x: 1, y: 1}
        m_Offset: {x: 0, y: 0}
    - _DetailMask:
        m_Texture: {fileID: 0}
        m_Scale: {x: 1, y: 1}
        m_Offset: {x: 0, y: 0}
    - _DetailNormalMap:
        m_Texture: {fileID: 0}
        m_Scale: {x: 1, y: 1}
        m_Offset: {x: 0, y: 0}
    - _DetailTex:
        m_Texture: {fileID: 0}
        m_Scale: {x: 1, y: 1}
        m_Offset: {x: 0, y: 0}
    - _EmissionMap:
        m_Texture: {fileID: 0}
        m_Scale: {x: 1, y: 1}
        m_Offset: {x: 0, y: 0}
    - _GlossMap:
        m_Texture: {fileID: 0}
        m_Scale: {x: 1, y: 1}
        m_Offset: {x: 0, y: 0}
    - _KKFlowMap:
        m_Texture: {fileID: 0}
        m_Scale: {x: 1, y: 1}
        m_Offset: {x: 0, y: 0}
    - _MainTex:
        m_Texture: {fileID: 2800000, guid: d07a12bf84a44e441892b19de2c6b714, type: 3}
        m_Scale: {x: 1, y: 1}
        m_Offset: {x: 0, y: 0}
    - _MetallicGlossMap:
        m_Texture: {fileID: 2800000, guid: a78e8c929775bfb49ad2bdd796183c89, type: 3}
        m_Scale: {x: 1, y: 1}
        m_Offset: {x: 0, y: 0}
    - _OcclusionMap:
        m_Texture: {fileID: 0}
        m_Scale: {x: 1, y: 1}
        m_Offset: {x: 0, y: 0}
    - _ParallaxMap:
        m_Texture: {fileID: 0}
        m_Scale: {x: 1, y: 1}
        m_Offset: {x: 0, y: 0}
    - _ShadowOffset:
        m_Texture: {fileID: 0}
        m_Scale: {x: 1, y: 1}
        m_Offset: {x: 0, y: 0}
    - _SpecGlossMap:
        m_Texture: {fileID: 2800000, guid: a78e8c929775bfb49ad2bdd796183c89, type: 3}
        m_Scale: {x: 1, y: 1}
        m_Offset: {x: 0, y: 0}
    - _TranslucencyMap:
        m_Texture: {fileID: 0}
        m_Scale: {x: 1, y: 1}
        m_Offset: {x: 0, y: 0}
    m_Ints: []
    m_Floats:
    - _BumpScale: 1
    - _Cull: 0
    - _Cutoff: 0.37
    - _DetailNormalMapScale: 1
    - _DstBlend: 0
    - _EmissionScaleUI: 0
    - _Glossiness: 0.522
    - _InvFade: 1
    - _KKPrimaryRootShift: 0.67
    - _KKPrimarySpecularExponent: 192
    - _KKReflectionGrayScale: 23.5
    - _KKReflectionSmoothness: 0.077
    - _KKSecondaryRootShift: -1
    - _KKSecondarySpecularExponent: 142
    - _Lightmapping: 1
    - _Metallic: 0
    - _Mode: 1
    - _OcclusionStrength: 1
    - _Parallax: 0.0229
    - _Shininess: 1
    - _SquashAmount: 1
    - _SrcBlend: 1
    - _UVSec: 0
    - _WindQuality: 0
    - _ZTest: 4
    - _ZWrite: 1
    m_Colors:
    - _Color: {r: 0.6838235, g: 0.6838235, b: 0.6838235, a: 1}
    - _EmisColor: {r: 0.2, g: 0.2, b: 0.2, a: 0}
    - _EmissionColor: {r: 0, g: 0, b: 0, a: 1}
    - _EmissionColorUI: {r: 1, g: 1, b: 1, a: 1}
    - _HueVariation: {r: 0.8088235, g: 0.3906321, b: 0.25573096, a: 0.1}
    - _ImageTexCoords0: {r: 0, g: 0, b: 0, a: 0}
    - _ImageTexCoords1: {r: 0, g: 0, b: 0, a: 0}
    - _ImageTexCoords10: {r: 0, g: 0, b: 0, a: 0}
    - _ImageTexCoords11: {r: 0, g: 0, b: 0, a: 0}
    - _ImageTexCoords12: {r: 0, g: 0, b: 0, a: 0}
    - _ImageTexCoords13: {r: 0, g: 0, b: 0, a: 0}
    - _ImageTexCoords14: {r: 0, g: 0, b: 0, a: 0}
    - _ImageTexCoords15: {r: 0, g: 0, b: 0, a: 0}
    - _ImageTexCoords16: {r: 0, g: 0, b: 0, a: 0}
    - _ImageTexCoords17: {r: 0, g: 0, b: 0, a: 0}
    - _ImageTexCoords18: {r: 0, g: 0, b: 0, a: 0}
    - _ImageTexCoords19: {r: 0, g: 0, b: 0, a: 0}
    - _ImageTexCoords2: {r: 0, g: 0, b: 0, a: 0}
    - _ImageTexCoords20: {r: 0, g: 0, b: 0, a: 0}
    - _ImageTexCoords21: {r: 0, g: 0, b: 0, a: 0}
    - _ImageTexCoords22: {r: 0, g: 0, b: 0, a: 0}
    - _ImageTexCoords23: {r: 0, g: 0, b: 0, a: 0}
    - _ImageTexCoords24: {r: 0, g: 0, b: 0, a: 0}
    - _ImageTexCoords25: {r: 0, g: 0, b: 0, a: 0}
    - _ImageTexCoords26: {r: 0, g: 0, b: 0, a: 0}
    - _ImageTexCoords27: {r: 0, g: 0, b: 0, a: 0}
    - _ImageTexCoords28: {r: 0, g: 0, b: 0, a: 0}
    - _ImageTexCoords29: {r: 0, g: 0, b: 0, a: 0}
    - _ImageTexCoords3: {r: 0, g: 0, b: 0, a: 0}
    - _ImageTexCoords30: {r: 0, g: 0, b: 0, a: 0}
    - _ImageTexCoords31: {r: 0, g: 0, b: 0, a: 0}
    - _ImageTexCoords4: {r: 0, g: 0, b: 0, a: 0}
    - _ImageTexCoords5: {r: 0, g: 0, b: 0, a: 0}
    - _ImageTexCoords6: {r: 0, g: 0, b: 0, a: 0}
    - _ImageTexCoords7: {r: 0, g: 0, b: 0, a: 0}
    - _ImageTexCoords8: {r: 0, g: 0, b: 0, a: 0}
    - _ImageTexCoords9: {r: 0, g: 0, b: 0, a: 0}
    - _InstanceData: {r: 0, g: 0, b: 0, a: 0}
    - _KKPrimarySpecularColor: {r: 1, g: 1, b: 1, a: 1}
    - _KKSecondarySpecularColor: {r: 1, g: 1, b: 1, a: 1}
    - _KKSpecularMixDirectFactors: {r: 0.15, g: 0.1, b: 0.05, a: 0}
    - _KKSpecularMixIndirectFactors: {r: 0.75, g: 0.6, b: 0.15, a: 0}
    - _SpecColor: {r: 1, g: 0.9154413, b: 0.8308824, a: 0}
    - _TintColor: {r: 0.5, g: 0.5, b: 0.5, a: 0.5}
    - _TreeInfo0: {r: 0, g: 0, b: 0, a: 0}
    - _TreeInfo1: {r: 0, g: 0, b: 0, a: 0}
    - _TreeInfo2: {r: 0, g: 0, b: 0, a: 0}
    - _TreeInfo3: {r: 0, g: 0, b: 0, a: 0}
    - _TreeInstanceColor: {r: 1, g: 1, b: 1, a: 1}
    - _TreeInstanceScale: {r: 1, g: 1, b: 1, a: 1}
    - _TreeSize0: {r: 0, g: 0, b: 0, a: 0}
    - _TreeSize1: {r: 0, g: 0, b: 0, a: 0}
    - _TreeSize2: {r: 0, g: 0, b: 0, a: 0}
    - _TreeSize3: {r: 0, g: 0, b: 0, a: 0}
  m_BuildTextureStacks: []
